"Time","Bac_1","Bac_2","Bac_3","Bac_4","Bac_5","Bac_6","Bac_7","Bac_8","Bac_9","Bac_10","Bac_11","Bac_12","Bac_13","Bac_14","Bac_15","Bac_16","Bac_17","Bac_18","Bac_19","Bac_20","Bac_21","Bac_22","Bac_23","Bac_24","Iter"
9996,0,0,0,0,0,3.8631270582181,0,0.000137300239996565,0,1.94697190755853,0.841747100864218,0,0,0,2.50845809627528,0,0,0,0,0,0,0,0,0,0
9996,0,0,0,0,0,0.430387548338054,0,0,0,4.8486709501478,0,0,0,0,2.58977033627766,0,0,0,0.519759134413813,0,0,0,0,0,1
9996,0,0,0,0,0,0,0,3.00514743022528,0,0,0.0833354004975011,0,0,0.707824605006864,0,0,0,0,0.000673905831954413,1.75378148935632,0,0,2.53466782387148,0,2
9996,0,0,0.000263286463796994,0,0,0,0,0,0,0,0,0,1.7860697526334,0,0.981168997184822,0,3.33416773879043,0,0,2.30121222046826,0,0,0,0,3
9996,0,0,0,0.0728190316492605,0,0,0,0,0.885759838731229,0.0278815700143041,1.9098440310281,0,0,0,0,0,0,0,0,0.000101894823638846,0,0,6.09792126096911,0,4
9996,0,0.560292176984849,0,0,0,0,0,0,0,0,0,0,0,0,5.32433187312902,0,0,0,0,0,2.29441351588605,0,0,0,5
9996,0,0,0,0,0,0,1.9470237527613,1.23952073704558,0,3.71470601385538,0,0,1.92176992477951,0,0,0,0,0,0,0,0,0,0,0,6
9996,0,0,0,0.000361270713054813,0,0,0.000810674838664071,0,0,2.43023320159658,0,0,0,1.25456633887942,0,0,4.19507882120411,0,0,0,0,0.000332543832946837,1.0740974070192,0,7
9996,0,0,0,0,0,0,0,0,0.46673726910153,0,0,0,0.000424611455098115,0.253203580414928,0,4.3043951496672,0,0,0,0,0,1.89949198436222,0,0.822347140775713,8
9996,0,0,0,0,0,0,0,0,0,0,0.956365288895158,0,0,0,0,2.39237101593585,0,0,0,0,0,0,0.49259533841372,3.7274961000945,9
9996,0,0,3.92669649359605,0,0,0,0,2.99591437080657,0,0,2.28571868096988,0,0,0,0.0098174386296029,0,0,0,0,0,0,0,0,0,10
9996,4.05374055371908,0,0,0,0,0,0,0,2.58705961646813,0,0,0,0,0,0,0,0,0,0,0,0.017385252511992,1.9871358590642,0,0,11
9996,2.72649078961482,2.32983375561551,0,0,0,0,0,0,0,0,2.34704422112248,0,1.19500230619585,0,0,0,0,0,0,0,0,0,0,0,12
9996,0,0,0,0,0,0,0,0,0,0,0.0120274869385891,0,1.84926332169396,3.25864744327777,1.16171203640155,0,0,0.0221123705746426,0.000136010318026267,2.35194493601887,0,0,0,0,13
9996,0,0,0,0,0,0,1.75639039349824,0,0,0,0,3.7705201921912,0.285036190010533,0,0,0,0,2.23743153887775,0,0,0,0,0,0,14
9996,0,0,0.394683064935091,4.18177225154814,0,0,0,0,0,0,0,0,0,0,0,0,0,0,0,0,0,0,0.164097038302879,3.07030103910186,15
9996,5.55014579824606,0,0,0,0,0,0,0,0,0,0,0.00242829812289863,0.738503164128331,1.66463483309174,0,0,0,0.756257235627947,0,0,0,0,0,0,16
9996,3.22217893730233,0,0,0,0,0,0,0,4.59531871753499,0,0,0,0,0,0,0,0,0,0,0,0.731525827701387,0.0923078514352619,0.000490024294487601,0,17
9996,3.94905785997288,0,0,0,0,0,0,0,4.46730899163749,0,0,0,0,0,0,0,0,0,0,0,0.0397150728349991,0.233046339606279,0,0,18
9996,0,0,0,0,0,0,3.88564081266992,0,0,0,0.000118319442806304,0,0,0,0,0.000569381344980294,0,0.00393525934869773,0,0,2.06446383462979,2.91216911728878,0,0,19
9996,3.4301962892505,0,0,0,0,0,0,0,4.95879508860291,0,0,0,0,0,0,0,0,0,0,0,0.0514130707422442,0.225504962429158,0,0,20
9996,0,0,0,2.51704067961845,0,0,0.00231046010889909,0,0,0.543141175242545,0,0.176178721772282,1.94790696384886,0,0,2.61592849438392,0,0,0,0,0,0,1.27725097307415,0,21
9996,0,0,0,0,0,2.77777105838847,1.22538514855839,0,2.36467569008565,0,0,0,0,0,0,0,0,0,0,0,0,2.41422814894085,0,0.000458381180566608,22
9996,0,0,0,0,2.44772801613667,0,4.49412747551353,0,0,0,0.0387181625688735,0,0,0,0,0,0,1.9848666734316,0.00344107217256036,0,0,0,0,0,23
9996,0,0,0,3.5362754100567,0,2.70204884661444,0,0,0.0659420473259097,0,0,0,2.66898330041604,0,0,0,0.170648798886932,0,0,0,0,0,0.00458256744733505,0,24
9996,0,0.0451923625715272,0,0,0,0,0,0,0,0,0.0664251621653215,0,0,7.2272086357485,0,0,0,1.20725101807601,0,0,0,0,0,0,25
9996,0,0,0.00154252241479951,0.000371563925350981,0,0,0,0,5.39149695932198,1.62307534075276,0,0,0,0,0,0,0,0,0.309159447035088,0,0,0,1.94665344703446,0,26
9996,0,0,2.07955339034529,0,0,0,0,0,0,0,0,0,0,0,0,0,5.12875115123556,0.131862051787703,0,0.00796337022732115,0,0,0,0,27
9996,1.38865545074821,0,0,0,1.92615514312524,0,0,0,0,0,0,0,0,0,0,0,0,0,0,0,0,0,0,6.15417123511486,28
9996,3.31969683176927,0,0,0,0,0,0,0.186734575349237,0,0,0,2.79052210665831,0,1.85421950161182,0,0,0,0,0,0,0,0,0.324271648124008,0,29
9996,0,0,0,0,0,3.00493643159598,0,0,0,3.61950018708586,0.00469235188807323,0,0,0,2.48169928483131,0,0,0,0,0,0,0,0,0,30
9996,1.2402092197615,0,0,0,0,0,0,0,6.26617332267002,0,0,0,0,0,0,0,0,0,0,0,0.817898669900758,0.27631251764521,0,0,31
9996,2.91408478083085,0,0.00243059126524768,0,0,0,0,0,1.24471748139503,0,0,0,0,0,0,0,0,0,0,0,1.17745630583798,3.27260203316816,0.121492614386512,0,32
9996,3.22360588599682,0,0,0,0,0,0,0,0.231012971349278,0,0,0,0,0,0,0,0,0,0,0,1.25999203662472,3.92867943640365,0,0,33
9996,2.87722101468755,0,0,0,0,0,0,0,0.341757479278274,0,0,0,0,0,0,0,0,0,0,0,5.54032862099824,0.0660783575204223,0.000459266162616076,0,34
9996,3.95214584853465,0,0,0,0,0,0,0,4.6592995003691,0,0,0,0,0,0,0,0,0,0,0,0.00884078502997639,0.124579247713532,0,0,35
9996,4.31323759240785,0,0,0,0,0,0,0,0.0719162295126785,0,0,0,0,0,0,0,0,0,0,0,0.000649837298240327,4.53523701860091,0,0,36
9996,2.63449608160087,0,0,0,0,0,0,0,3.95158363164841,0,0,0,0,0,0,0,0,0,0,0,1.14447046709041,1.01142309459973,0,0,37
9996,0.548047111957877,0,0,0,0,0,0,0,6.59059652108825,0,0,0,0,0,0,0,0,0,0,0,0.847815249395741,0.540290314978312,0,0,38
9996,4.08790318926245,0,0,0,0,0,0,0,3.22379485791884,0,0,0,0,0,0,0,0,0,0,0,0.00242823415434262,1.46994016837565,0,0,39
9996,4.1298539542847,0,0,0,0,0,0,0,2.15959259200667,0,0,0,0,0,0,0,0,0,0,0,0.0108041900698637,2.41855045963781,0,0,40
9996,3.63862187353353,0,0,0,0,0,0,0,4.68668400767732,0,0,0,0,0,0,0,0,0,0,0,0.0757797565673644,0.2079192785051,0,0,41
9996,3.97947724920467,0,0,0,0,0,0,0,0.226448546229793,0,0,0,0,0,0,0,0,0,0,0,0.0663463948420488,4.41537082096796,0,0,42
9996,4.03151175564167,0,0,0,0,0,0,0,0.976398431280684,0,0,0,0,0,0,0,0,0,0,0,0.010302464600702,3.72793799403329,0,0,43
9996,3.21326275566065,0,0,0,0,0,0,0,4.99008700565482,0,0,0,0,0,0,0,0,0,0,0,0.0547203118777269,0.584644162686382,0,0,44
9996,3.91011710420331,0,0,0,0,0,0,0,3.66492920360086,0,0,0,0,0,0,0,0,0,0,0,0.00404961368535264,1.10522748066542,0,0,45
9996,4.08859809210541,0,0,0,0,0,0,0,0.210466079245262,0,0,0,0,0,0,0,0,0,0,0,0.19407539082533,4.19868651516866,0.000800185267822756,0,46
9996,3.88518895290356,0,0,0,0,0,0,0,3.21362795073722,0,0,0,0,0,0,0,0,0,0,0,0.131189681161982,1.52074856463604,0,0,47
9996,3.21792594188249,0,0,0,0,0,0,0,4.77371109948096,0,0,0,0,0,0,0,0,0,0,0,0.627053721938401,0.0975059532829637,0,0,48
9996,3.82392393704586,0,0,0,0,0,0,0,3.7613321030204,0,0,0,0,0,0,0,0,0,0,0,0.506100044368799,0.616833355272667,0,0,49
9996,4.15636055839241,0,0,0,0,0,0,0,4.57368510802981,0,0,0,0,0,0,0,0,0,0,0,0.00280904435508321,0.155828062596031,0.0268497032993656,0,50
9996,3.99530204845729,0,0,0,0,0,0,0,1.19721193510857,0,0,0,0,0,0,0,0,0,0,0,0.101537088007058,3.4151172235424,0,0,51
9996,2.79584935889118,0,0,0,0,0,0,0,2.52464728243582,0,0,0,0,0,0,0,0,0,0,0,1.23164544866335,2.20128276663295,0,0,52
9996,2.99885342524664,0,0,0,0,0,0,0,1.77098309847638,0,0,0,0,0,0,0,0,0,0,0,1.44927309952424,2.52562917491899,0.00982245572985581,0,53
9996,4.28354028299018,0,0,0,0,0,0,0,3.84829412081208,0,0,0,0,0,0,0,0,0,0,0,0.15509992091981,0.443473358018993,0,0,54
9996,3.58738215534242,0,0,0,0,0,0,0,2.19145149435259,0,0,0,0,0,0,0,0,0,0,0,0.544541889013425,2.51111892575502,0.000129085980356994,0,55
9996,2.60575566333532,0,0,0,0,0,0,0,5.80716510617616,0,0,0,0,0,0,0,0,0,0,0,0.011767448634474,0.218560038273064,0,0,56
9996,2.24448358647884,0,0,0,0,0,0,0,4.87319322225472,0,0,0,0,0,0,0,0,0,0,0,0.785126672588659,0.822575633715811,0,0,57
9996,4.03655531962212,0,0,0,0,0,0,0,4.27803689895339,0,0,0,0,0,0,0,0,0,0,0,0.21181279543196,0.137121048177445,0,0,58
9996,4.07896516096943,0,0,0,0,0,0,0,1.06450640219129,0,0,0,0,0,0,0,0,0,0,0,0.078696378591657,3.53354538739231,0,0,59
9996,3.33549812884154,0,0,0,0,0,0,0,0.643253636450542,0,0,0,0,0,0,0,0,0,0,0,0.832128838534306,4.07437479203017,0,0,60
9996,0.695480726040005,0,0,0,0,0,0,0,7.53504253838321,0,0,0,0,0,0,0,0,0,0,0,0.404687684537451,0.013256848904561,0,0,61
9996,2.97569237613085,0,0,0,0,0,0,0,4.43263746199153,0,0,0,0,0,0,0,0,0,0,0,0.649721311778676,0.565289918749702,0,0,62
9996,4.11878007897759,0,0,0,0,0,0,0,1.27180284961179,0,0,0,0,0,0,0,0,0,0,0,0.0148756367065945,3.43363752818462,0.000340950682411411,0,63
9996,3.31883995966131,0,0,0,0,0,0,0,4.293692033845,0,0,0,0,0,0,0,0,0,0,0,0.0858064037425478,1.06568474870165,0,0,64
9996,3.36811435163088,0,0,0,0,0,0,0,0.224211703938182,0,0,0,0,0,0,0,0,0,0,0,0.002129890019125,5.05514977845593,0.000433541014591543,0,65
9996,3.67743632827868,0,0,0,0,0,0,0,3.96582108338381,0,0,0,0.000127987505934078,0,0,0,0,0,0,0,0.548663993406901,0.459191971660553,0,0,66
9996,3.9294874449149,0,0,0,0,0,0,0,3.43353727206599,0,0,0,0,0,0,0,0,0,0,0,0.0178172844395112,1.19724229105382,0,0,67
9996,2.9378999106274,0,0,0,0,0,0,0,4.75757153071957,0,0,0,0,0,0,0,0,0,0,0,1.02913554092369,0.0446223381261154,0,0,68
9996,3.12318277071161,0,0,0,0,0,0,0,4.47651638913777,0,0,0,0,0,0,0,0,0,0,0,0.774577793634663,0.400669454037517,0,0,69
9996,2.69054887301889,0,0,0,0,0,0,0,4.16488057936416,0,0,0,0,0,0,0,0,0,0,0,0.176952473859602,1.47972586783454,0,0,70
9996,3.75857392759062,0,0,0,0,0,0,0,4.26344938749597,0,0,0,0,0,0,0,0,0,0,0,0.203215553269079,0.540569407859301,0,0,71
9996,4.12506355924957,0,0,0,0,0,0,0,3.85102231206127,0,0,0,0,0,0,0,0,0,0,0,0.00432971589248555,0.816078944543157,0,0,72
9996,3.03431847092389,0,0,0,0,0,0,0,0.398669629536033,0,0,0,0,0,0,0,0,0,0,0,1.04321413267426,4.16024747867924,0,0,73
9996,3.9222766676571,0,0,0,0,0,0,0,2.59955661339401,0,0,0,0,0,0,0,0,0,0,0,0.11059628645284,2.0226054230962,0,0,74
9996,3.9985129756044,0,0,0,0,0,0,0,4.37063096604487,0,0,0,0,0,0,0,0,0,0,0,0.0569185919228396,0.286617989083123,0,0,75
9996,4.65698587647586,0,0,0,0,0,0,0,2.55003234579152,0,0,0,0,0,0,0,0,0,0,0,0.471903813636879,1.07403273336097,0,0,76
9996,2.00153371233228,0,0,0,0,0,0,0,6.01092621407182,0,0,0,0,0,0,0,0,0,0,0,0.834934577127564,0.00270213857126192,0,0,77
9996,3.70855080923086,0,0,0,0,0,0,0,3.18163458140018,0,0,0,0,0,0,0,0,0,0,0,0.307430274381712,1.46339092249432,0,0,78
9996,3.7779568361376,0,0,0,0,0,0,0,1.29404340465651,0,0,0,0,0,0,0,0,0,0,0,0.0403377266562028,3.38490875734436,0,0,79
9996,1.96223739682202,0,0,0,0,0,0,0,4.73976437857163,0,0,0,0,0,0,0,0,0,0,0,1.27955614785572,0.729819150762936,0,0,80
9996,3.49142090655126,0,0,0,0,0,0,0,3.17622261436544,0,0,0,0,0,0,0,0,0,0,0,0.833527409943395,1.27258227159597,0,0,81
9996,4.21441786566895,0,0,0,0,0,0,0,2.74601203809357,0,0,0,0,0,0,0,0,0,0,0,0.256828901100423,1.59071455871551,0,0,82
9996,3.14753008247691,0,0,0,0,0,0,0,0.291773370211067,0,0,0,0,0,0,0,0,0,0,0,3.88848427082793,1.42597450887435,0,0,83
9996,3.07380936734288,0,0,0,0,0,0,0,1.14644022332615,0,0,0,0,0,0,0,0,0,0,0,1.16548203206971,3.3405900654951,0.000774126554291432,0,84
9996,2.84078934927604,0,0,0,0,0,0,0,5.79436691176776,0,0,0,0,0,0,0,0,0,0,0,0.000667672365537541,0.10340552317091,0,0,85
9996,3.68984219955373,0,0,0,0,0,0,0,0.0169932051606628,0,0,0,0,0,0,0,0,0,0,0,0.386744142704125,4.66442897322002,0.000127163469648609,0,86
9996,4.01450672450247,0,0,0,0,0,0,0,3.74570180235381,0,0,0,0,0,0,0,0,0,0,0,0.452553391909345,0.56882246668683,0.00074684152190048,0,87
9996,4.03616136996697,0,0,0,0,0,0,0,3.82460799891163,0,0,0,0,0,0,0,0,0,0,0,0.00227009045243498,0.927587415635281,0,0,88
9996,3.91607221500169,0,0,0,0,0,0,0,2.95997265014656,0,0,0,0,0,0,0,0,0,0,0,0.00401916129352235,1.79797063653351,0.000251138200653501,0,89
9996,4.05710040401627,0,0,0,0,0,0,0,0.763823868768419,0,0,0,0,0,0,0,0,0,0,0,0.0290119070995642,3.92623838858543,0.00517336211010894,0,90
9996,2.74268767319965,0,0,0,0,0,0,0,0.345579158461321,0,0,0,0,0,0,0,0,0,0,0,1.17740697530254,4.43966336665305,0.00028368242531302,0,91
9996,3.25545768791087,0,0,0,0,0,0,0,4.15722640214755,0,0,0,0,0,0,0,0,0,0,0,1.13264397652995,0.232479052785556,0,0,92
9996,0.0307694232062249,0,0,0,0,0,0,0,7.67976141049671,0,0,0,0,0,0,0,0,0,0,0,0.643776511955405,0,0,0,93
9996,3.49232693697983,0,0,0,0,0,0,0,2.73898995176729,0,0,0,0,0,0,0,0,0,0,0,1.30988414450394,1.21919136490578,0,0,94
9996,3.46368463387585,0,0,0,0,0,0,0,4.9817166379663,0,0,0,0,0,0,0,0,0,0,0,0.00655615593338344,0.208948944309063,0,0,95
9996,3.99713667090754,0,0,0,0,0,0,0,1.31456686702088,0,0,0,0,0,0,0,0,0,0,0,0,3.37830208716102,0,0,96
9996,3.7993139460666,0,0,0,0,0,0,0,2.64245334722243,0,0,0,0,0,0,0,0,0,0,0,0.334569226065742,1.83803961677015,0,0,97
9996,3.38566824103221,0,0,0,0,0,0,0,1.54828393085373,0,0,0,0,0,0,0,0,0,0,0,0.624978291143963,3.16464517690118,0,0,98
9996,2.96170123931712,0,0,0,0,0,0,0,1.90333332812523,0,0,0,0,0,0,0,0,0,0,0,1.681440099668,2.26257391166756,0,0,99
