"Time","Bac_1","Bac_2","Bac_3","Bac_4","Bac_5","Bac_6","Bac_7","Bac_8","Bac_9","Bac_10","Bac_11","Bac_12","Bac_13","Bac_14","Bac_15","Bac_16","Bac_17","Bac_18","Bac_19","Bac_20","Bac_21","Bac_22","Bac_23","Bac_24","Bac_25","Bac_26","Bac_27","Bac_28","Bac_29","Bac_30","Bac_31","Bac_32","Bac_33","Bac_34","Bac_35","Bac_36","Bac_37","Bac_38","Bac_39","Bac_40","Bac_41","Bac_42","Bac_43","Bac_44","Bac_45","Bac_46","Bac_47","Bac_48","Bac_49","Bac_50","Iter"
9996,0,0,0,2.08823680249823,0,0,0,0,0,0,0,0,0,0,0,0,0,0,0,2.81792551429449,0,0,0,0,0,0,0,0,0,0,0,0,0,0,0.002690718272173,0,0,0,0,0,0,3.86619834001244,0,0,0,0,0,0,0,0,0
9996,0,0,0,1.03227513501364,0,0,0,0,0,0,0,0,0.000201554337262347,0,0,0,0,0,0,5.26711724271623,0,0,0,0,0,0,0,0,0,0,0,0,0,0,0.00291822488048305,0,0,0,0,0,0,2.62363757298046,0,0,0,0,0,0,0,0,1
9996,0.000380023906286027,0,0,0,2.52271377986773,0,0,0,0,0,0,0,0,0,0,0,0,0,0,0,3.53615957569899,0,0,0,0,0,0,0,0,0,0,0,0,0,0.165154852281147,0,0,0,0,0,0,0,0,0,0,0,0,2.37583671869795,0,0,2
9996,0,0,0,0,0,0,0,0,0,1.76782024897762,0,0.00116509374840057,0,0,0,0,0,0,0,0,2.92649016023845,0,0,0,0,0,0,0,0,0,0,0,0,0,0,0,0,0,0,0,0,1.15536536200561,0,2.40504639605322,0,0,0,0,0,0,3
9996,0,0,0,0,0,0,0,0,2.70629059222811,0,0,0,0,0,0.942783262939383,0,0,0,0,0,0,0,0,0,0,0,0,3.87564463106316,0,0,0,0,0,0,0,0.0134705173646649,0.0742416290845325,0,0,1.38255302918668,0,0,0,0,0,0,0,0,0,0,4
9996,0,0,0,2.20599243160908,0,0,0,0,0,0,0,0,0.00377928845943087,0,0,0,0,0,0,3.67454078072095,0,0,0,0,0,0,0,0,0,0,0,0,0,0,0.00767884171385641,0,0,0,0,0,0,2.99437620760487,0,0,0,0,0,0,0,0,5
9996,0,0,0,0,0,0,0.35357020929432,0,0,0,2.27688898807943,0,0,0,0,0,0,0,0,0,0.0197231629080505,0,0,0,0,0,0,0,1.24135527375959,2.58436441602309,0,0,0,0,0,0,0,1.78866972493224,0,0,0,0,0,0,0,0,0,0,0,0,6
9996,0,0,0,1.97803189729043,0,0,0,0,0,0,0,0,0,0,0,0,0,0,0,3.22082776466392,0,0,0,0,0,0,0,0,0,0,0,0,0,0,0.00780686901235141,0,0,0,0,0,0,3.74438640308414,0,0,0,0,0,0,0,0,7
9996,0,0,0,1.96376277162034,0,0,0,0,0,0,0,0,0,0,0,0,0,0,0,2.49263473361787,0,0,0,0,0,0,0,0,0,0.0215911552829679,0,0,0,0,0.00033738605834105,0,0,0,0,0,0,4.54859411886138,0,0,0,0,0,0,0,0,8
9996,0,0,0,0.438821291064885,0,0,0,0,0,0,0,0,0,0,0,0,0,0,0,0,0,3.21120772906671,0,0,0,0,0,0,0,0,0,0,2.16523538664187,0,0,0,0,0,0,0,0,0,0,0,1.6591593074177,0,0,0,0,0,9
9996,0,0,0,0,0,0,0,0,0,0,0,0,0,0,0,0,3.8404111058548,1.72824632134586,0,0,0,0,0,0,0,0,0,0,0,0,0,0,0,0,0,0,0,0,0,0,0,0,0,0,0,0,2.11429211851953,0,0,0,10
9996,0,0,0,0,0.00183151657290475,0,0,0,0,0,0,0,0,0,0,0,0,0,0,0,0,0,0,4.18417984750752,0,0,0,0,0,0,0,0,0,0,0,0,0,0,0,0,0,0,0,0,0,0,0,0,0.00282466127332608,3.50337595455246,11
9996,0,0,0,1.40290263478971,0,0,0,0,0,0,0,0,0,0,0,0,0,0,0,3.62780234709184,0,0,0,0,0,0,0,0,0,0,0,0,0,0,0,0,0,0,0,0,0,3.92126853560739,0,0,0,0,0,0,0,0,12
9996,0,0,0,1.3037357185106,0,0,0,0.513647073752577,0,0,0,0,0,0.00343848296788505,0,0,0,0,0,0,0,0,0,0,2.51087866311027,0,0,0,0,0,0,0,0,0,0,0,0,0,0,0,2.96702437027366,0,0,0,0,0,0,0,0,1.97211941468418,13
9996,0,0,0,0,0,0,0,0,0,0,0,0.0685184013744241,0.138313519506452,0,0,0,0,2.4176604576398,0,0,0,0,0,0,0,0,0.0131749711915828,0,0,0,0,0,0,0,5.08387369243089,0,0,0,0,0,0,0,0,0,0,0,0,0,0,0,14
9996,0,0,2.82389575115024,0,0,0,0,0,0,0,0,0,0,0,0,0,0,0,0,2.93757732860949,0,0,0,0,0,0,0,0.032375746217236,0,0,0,0,0,2.07768590493975,0,0,0,0,0,0,0,0,0,0,0,0,0,0,0,0,15
9996,0,0,0,1.95255677606567,0,0,0,0,0,0,0,0,0,0,0,0,0,0,0,2.60315927001374,0,0,0,0,0,0,0,0,0,0,0,0,0,0,0.000144789953511484,0,0,0,0,0,0,4.36112243588632,0,0,0,0,0,0,0,0,16
9996,0,0,0,2.76090667893087,1.89150748103915,0,0,0,0,0,0,0,0,0,0,0.0016889595671318,0,0,0,0,0,0,0,0,0,0,0,0,0,0,0,0,0,0,0,0,0,0,0,0,0,0,0,3.70742991552019,0,0,0,0,0,0,17
9996,0,0,0,0,0,0,0,0,0,0,0,0,0,0,0,0,0,0,0,0,0,0,0,0,0,0,0,0,0,3.98831762062574,0,0,0,0,0,0,0,0,0,0,2.07277212319677,0,0,2.37510232728488,0,0,0,0,0.000815184207658369,0.0152169105199539,18
9996,0,0,0,0,0,0,0.774065266803431,0,0,0,0,0,0,0,1.77892438325121,0,0,0,0.896010434961242,0,0,0,0,0,0,0,0,0,0,0,0,0,0,0,0,0,0,0,0,0,0,0,0,0,5.55444915086673,0,0.0980490195762787,0,0,0,19
9996,0,0,0,1.9589879113896,0,0,0,0,0,0,0,0,0,0,0,0,0,0,0,2.58030986414399,0,0,0,0,0,0,0,0,0,0.000107623583220671,0,0,0,0,0.000900218124599278,0,0,0,0,0,0,4.43055883542021,0,0,0,0,0,0,0,0,20
9996,0,0,0,0,0,0,0,0,0,0,0,0,0,1.54288573218153,0,0,0,0,0,0,0,3.39688786689148,0,0,0,0,0,0,0,0,0,0,0,2.14105561714557,0,0.369961809619032,0,0,0,0,0,0,0,0,0,0,0,0,0,0,21
9996,0,0,0,0,0,0,0,0,0,0,0,0,0,0,0,5.53553333361335,0,0,0,0,0,0,0,0.520102709092354,0,0.0681734413393895,0,0,0.033452592631498,0,0,0,0,0,0,0,0,0,0,0,0,0,0,0,0,0,0,0,0,1.79320225928569,22
9996,0,0,0,2.0342339948815,0,0,0,0,0,0,0,0,0.00110074510596282,0,0,0,0,0,0,2.58741028555246,0,0,0,0,0,0,0,0,0,0,0,0,0,0,0,0,0,0,0,0,0,4.33107428998118,0,0,0,0,0,0,0,0,23
9996,0,0,0,1.92677825467127,0,0,0,0,0,0,0,0,0,0,0,0,0,0,0,4.04741680756232,0,0,0,0,0,0,0,0,0,0,0,0,0,0,0.00105330844184244,0,0,0,0,0,0,3.01694846394795,0,0,0,0,0,0,0,0,24
9996,0,0,0,2.38724126358462,0,0,0,0,0,0,0,0,0.728770255577054,0,0,0,0,1.96789848737477,3.04550670477946,0,0,0,0,0,0,0,0,0.5794595855802,0,0,0,0,0,0,0,0,0,0,0,0,0,0,0,0,0,0,0,0,0,0.336214175485834,25
9996,0,0,0,1.92690262984258,0,0,0,0,0,0,0,0,0,0,0,0,0,0,0,2.53157816357568,0,0,0,0,0,0,0,0,0,0,0,0,0,0,0,0,0,0,0,0,0,4.53045081795314,0,0,0,0,0,0,0,0,26
9996,0,0,0,0,0,0,0,0,0,0,0,0,0,0,0,0,0,0,0,6.37264295558384,0,0,0,0,0.0760949999210253,0,0,0,0,0,0,0,0,0,0,0,0,1.82599115536611,0.385040326109398,0,0,0,0,0,0,0,0,0,0,0,27
9996,0,0,0,0,0,0,0,0,0,0,0,0,0,0,0,0,0,0,0,2.0964011729219,0,0,0,0,0,0,0,0,0,0,0,0,0,0,0,1.65946281844004,0,0,0,0,0,0,0,2.47460743557001,0,0,1.54912463203055,0,0,0,28
9996,0,0,0,1.95799003721919,0,0,0,0,0,0,0,0,0,0,0,0,0,0,0,3.23990741595937,0,0,0,0,0,0,0,0,0,0.000321101017350834,0,0,0,0,0.0802926796223948,0,0,0,0,0,0,3.66892318101209,0,0,0,0,0,0,0,0,29
9996,0,0,0,2.65640276510703,0,0,0,0,0,0,0,0,0,0,0,0,0,0,0,3.10821965909797,0,0,0,0,0,0,0,0,0,0,0,0,0,0,0.00238214034404239,0,0,0,0,0,0,3.05579258720552,0,0,0,0,0,0,0,0,30
9996,0,0,0,4.39605845135693,0,0,0,0,0,0,0,0,0,0,0,0,0,0,0,1.66945833605093,0,0,0,0,0,0,0,0,0,0,0,0,0,0,0.147932054901636,0,0,0,0,0,0,2.76879099435999,0,0,0,0,0,0,0,0,31
9996,0,0,0,1.93876729879292,0,0,0,0,0,0,0,0,0,0,0,0,0,0,0,2.55849987205522,0,0,0,0,0,0,0,0,0,0.000129741675112879,0,0,0,0,0.00017048120600778,0,0,0,0,0,0,4.56194131001574,0,0,0,0,0,0,0,0,32
9996,0,0,0,1.94027429801806,0,0,0,0,0,0,0,0,0,0,0,0,0,0,0,2.52977974028178,0,0,0,0,0,0,0,0.389692210964872,0,0,0,0,0,0,0,0,0,0,0,0,0,4.16400473844524,0,0,0,0,0,0,0,0,33
9996,0,0,0,0.975072804272531,0,0,0,0,0,0,0,0,0,0,0,0,0,0,0,5.29482325389685,0,0,0,0,0,0,0,0,0,0,0,0,0,0,0.00171085035853757,0,0,0,0,0,0,2.71048335453309,0,0,0,0,0,0,0,0,34
9996,0,0,0,1.72015950853645,0,0,0,0,0,0,0,0,0,0,0,0,0,0,0,3.86011641872189,0,0,0,0,0,0,0,0,0,0,0,0,0,0,0.000610899225940377,0,0,0,0,0,0.0633890153200192,3.27584157181305,0,0,0,0,0,0,0,0,35
9996,0,0,0,1.77066766753001,0,0,0,0,0,0,0,0,0,0,0,0,0,0,0,3.94216625366429,0,0,0,0,0,0,0,0,0,0.00121261920395672,0,0,0,0,0.0162205895209576,0,0,0,0,0,0,3.35014562101377,0,0,0,0,0,0,0,0,36
9996,0,0,0,2.15858837193739,0,0,0,0,0,0,0,0,0,0,0,0,0,0,0,2.50896414702469,0,0,0,0,0,0,0,0.202968689772033,0,0,0,0,0,0,0.00107065863616971,0,0,0,0,0,0.0310863228714561,4.10754089144603,0,0,0,0,0,0,0,0,37
9996,0,0,0,1.97692694641301,0,0,0,0,0,0,0,0,0.0117929823598055,0,0,0,0,0,0,3.24055859071584,0,0,0,0,0,0,0,0,0,0.0589425639998869,0,0,0,0,0.0218534483536954,0,0,0,0,0,0.448193391957741,3.23180995235991,0,0,0,0,0,0,0,0,38
9996,0,0,0,1.9279802210754,0,0,0,0,0,0,0,0,0,0,0,0,0,0,0,3.41857885567774,0,0,0,0,0,0,0,0,0,0,0,0,0,0,0,0,0,0,0,0,0,3.66535096881385,0,0,0,0,0,0,0,0,39
9996,0,0,0,1.94693624460119,0,0,0,0,0,0,0,0,0,0,0,0,0,0,0,3.57457653192475,0,0,0,0,0,0,0,0.475811056935924,0,0,0,0,0,0,0.0150389842465404,0,0,0,0,0,0,2.96730670053638,0,0,0,0,0,0,0,0,40
9996,0,0,0,1.7236531997613,0,0,0,0,0,0,0,0,0.00255102238468194,0,0,0,0,0,0,4.13702812175431,0,0,0,0,0,0,0,0,0,0,0,0,0,0,0,0,0,0,0,0,0,3.08968877495164,0,0,0,0,0,0,0,0,41
9996,0,0,0,1.75908457004426,0,0,0,0,0,0,0,0,0,0,0,0,0,0,0,3.25351580236042,0,0,0,0,0,0,0,0.237635013156019,0,0,0,0,0,0,0.00114656620024769,0,0,0,0,0,0,3.75650312029451,0,0,0,0,0,0,0,0,42
9996,0,0,0,1.91899127162062,0,0,0,0,0,0,0,0,0,0,0,0,0,0,0,2.74652632944477,0,0,0,0,0,0,0,0,0,0.00246558733112305,0,0,0,0,0.00537280075582647,0,0,0,0,0,0,4.29196545127836,0,0,0,0,0,0,0,0,43
9996,0,0,0,1.7656839333795,0,0,0,0,0,0,0,0,0,0,0,0,0,0,0,3.86225611538946,0,0,0,0,0,0,0,0,0,0,0,0,0,0,0.00120011633162204,0,0,0,0,0,0,3.25795170611259,0,0,0,0,0,0,0,0,44
9996,0,0,0,3.05486453244111,0,0,0,0,0,0,0,0,0,0,0,0,0,0,0,2.51023481283929,0,0,0,0,0,0,0,0,0,0.000192760735988515,0,0,0,0,0.00110528805198931,0,0,0,0,0,0,3.36307145696345,0,0,0,0,0,0,0,0,45
9996,0,0,0,1.97260073648593,0,0,0,0,0,0,0,0,0.00736993344510158,0,0,0,0,0,0,2.5080767776998,0,0,0,0,0,0,0,0,0,0.000137511384515356,0,0,0,0,0,0,0,0,0,0,0,4.44889082904038,0,0,0,0,0,0,0,0,46
9996,0,0,0,1.82690946146783,0,0,0,0,0,0,0,0,0,0,0,0,0,0,0,3.80945937916195,0,0,0,0,0,0,0,0,0,0,0,0,0,0,0.000631556031967985,0,0,0,0,0,0,3.32940134098619,0,0,0,0,0,0,0,0,47
9996,0,0,0,2.00667131397293,0,0,0,0,0,0,0,0,0,0,0,0,0,0,0,3.72851547580778,0,0,0,0,0,0,0,0,0,0.000171848011575589,0,0,0,0,0.00302559756077314,0,0,0,0,0,0,3.2354690136079,0,0,0,0,0,0,0,0,48
9996,0,0,0,1.9956533687353,0,0,0,0,0,0,0,0,0,0,0,0,0,0,0,2.57303441978463,0,0,0,0,0,0,0,0,0,0,0,0,0,0,0.000917908646039125,0,0,0,0,0,0,4.39559246226844,0,0,0,0,0,0,0,0,49
9996,0,0,0,1.69629339673326,0,0,0,0,0,0,0,0,0,0,0,0,0,0,0,4.31766235833733,0,0,0,0,0,0,0,0,0,0.000497437514053686,0,0,0,0,0.0123984503866368,0,0,0,0,0,0,2.98906507913414,0,0,0,0,0,0,0,0,50
9996,0,0,0,1.92382260503254,0,0,0,0,0,0,0,0,0,0,0,0,0,0,0,2.80111896051861,0,0,0,0,0,0,0,0,0,0,0,0,0,0,0.00225716305154436,0,0,0,0,0,0,4.25291077031849,0,0,0,0,0,0,0,0,51
9996,0,0,0,4.95012025172828,0,0,0,0,0,0,0,0,0,0,0,0,0,0,0,1.45516309520041,0,0,0,0,0,0,0,0,0,0,0,0,0,0,0.00561908924826053,0,0,0,0,0,0,2.52240415101317,0,0,0,0,0,0,0,0,52
9996,0,0,0,2.402430504308,0,0,0,0,0,0,0,0,0,0,0,0,0,0,0,2.48561678346015,0,0,0,0,0,0,0,0,0,0,0,0,0,0,0.167144989268394,0,0,0,0,0,0,3.84024501217854,0,0,0,0,0,0,0,0,53
9996,0,0,0,1.92809578684087,0,0,0,0,0,0,0,0,0,0,0,0,0,0,0,2.81320063481107,0,0,0,0,0,0,0,0,0,0.00017862833258835,0,0,0,0,0.000988324815719823,0,0,0,0,0,0,4.24923537282808,0,0,0,0,0,0,0,0,54
9996,0,0,0,3.56402589811736,0,0,0,0,0,0,0,0,0,0,0,0,0,0,0,2.27613507119999,0,0,0,0,0,0,0,0,0,0,0,0,0,0,0.00185267771462069,0,0,0,0,0,0,3.05767717291676,0,0,0,0,0,0,0,0,55
9996,0,0,0,2.00024357862222,0,0,0,0,0,0,0,0,0,0,0,0,0,0,0,2.67251664157333,0,0,0,0,0,0,0,0,0,0,0,0,0,0,0.000177232558376593,0,0,0,0,0,0,4.26140850091398,0,0,0,0,0,0,0,0,56
9996,0,0,0,1.97845072584242,0,0,0,0,0,0,0,0,0.00810049525131242,0,0,0,0,0,0,3.34395271831765,0,0,0,0,0,0,0,0.487177863844657,0,0.000158482872159285,0,0,0,0,0.00130078823713436,0,0,0,0,0,0,3.20636692569924,0,0,0,0,0,0,0,0,57
9996,0,0,0,2.07610613743509,0,0,0,0,0,0,0,0,0,0,0,0,0,0,0,2.64872274365525,0,0,0,0,0,0,0,0,0,0.00330032042615901,0,0,0,0,0.00351073283510325,0,0,0,0,0,0.352371767437041,3.9172822060006,0,0,0,0,0,0,0,0,58
9996,0,0,0,1.93106546650187,0,0,0,0,0,0,0,0,0,0,0,0,0,0,0,3.15444356932273,0,0,0,0,0,0,0,0,0,0,0,0,0,0,0.000636080524046132,0,0,0,0,0,0,3.93283326324184,0,0,0,0,0,0,0,0,59
9996,0,0,0,4.78704544087808,0,0,0,0,0,0,0,0,0,0,0,0,0,0,0,1.74716516148936,0,0,0,0,0,0,0,0,0,0,0,0,0,0,0.000597380382036408,0,0,0,0,0,0,2.53005345714782,0,0,0,0,0,0,0,0,60
9996,0,0,0,2.06513337315639,0,0,0,0,0,0,0,0,0.000844736335899559,0,0,0,0,0,0,2.53284192527661,0,0,0,0,0,0,0,0,0,0.00451153449595141,0,0,0,0,0.000840312582291832,0,0,0,0,0,0,4.27356341996007,0,0,0,0,0,0,0,0,61
9996,0,0,0,3.4521175834015,0,0,0,0,0,0,0,0,0,0,0,0,0,0,0,2.51034565657396,0,0,0,0,0,0,0,0,0,0.00118384096799406,0,0,0,0,0.0141751007579161,0,0,0,0,0,0,2.9923526222907,0,0,0,0,0,0,0,0,62
9996,0,0,0,1.85039955075005,0,0,0,0,0,0,0,0,0.00236907994408873,0,0,0,0,0,0,4.01046564386189,0,0,0,0,0,0,0,0,0,0,0,0,0,0,0,0,0,0,0,0,0,3.15397641873704,0,0,0,0,0,0,0,0,63
9996,0,0,0,3.96168463865303,0,0,0,0,0,0,0,0,0.00469846906530854,0,0,0,0,0,0,1.98303008346478,0,0,0,0,0,0,0,0,0,0.00164606940724581,0,0,0,0,0.480352469297655,0,0,0,0,0,0,2.40275024467227,0,0,0,0,0,0,0,0,64
9996,0,0,0,1.6564649738233,0,0,0,0,0,0,0,0,0.000488120049628016,0,0,0,0,0,0,3.93419420091467,0,0,0,0,0,0,0,0,0,0.000935571854576619,0,0,0,0,0.131875563955818,0,0,0,0,0,0,3.28646344421359,0,0,0,0,0,0,0,0,65
9996,0,0,0,1.63731229419528,0,0,0,0,0,0,0,0,0,0,0,0,0,0,0,3.84644384517723,0,0,0,0,0,0,0,0.468387233238056,0,0.000265391774977203,0,0,0,0,0.00155391133415387,0,0,0,0,0,0,3.08525913183062,0,0,0,0,0,0,0,0,66
9996,0,0,0,1.95374060600315,0,0,0,0,0,0,0,0,0,0,0,0,0,0,0,3.92223904302491,0,0,0,0,0,0,0,0,0,0.000255561362977317,0,0,0,0,2.10777822465203,0,0,0,0,0,0,0.958649328445139,0,0,0,0,0,0,0,0,67
9996,0,0,0,1.59197949333527,0,0,0,0,0,0,0,0,0,0,0,0,0,0,0,3.9557720894227,0,0,0,0,0,0,0,0,0,0,0,0,0,0,0.000131371729038103,0,0,0,0,0,0,3.3432021321065,0,0,0,0,0,0,0,0,68
9996,0,0,0,1.92712420516783,0,0,0,0,0,0,0,0,0,0,0,0,0,0,0,2.60317531397185,0,0,0,0,0,0,0,0,0,0,0,0,0,0,0.000520311831062419,0,0,0,0,0,0,4.33594378881871,0,0,0,0,0,0,0,0,69
9996,0,0,0,1.98184807488341,0,0,0,0,0,0,0,0,0,0,0,0,0,0,0,2.55107568632011,0,0,0,0,0,0,0,0,0,0.00110746083647887,0,0,0,0,0.0380439628038869,0,0,0,0,0,0,4.39087861414089,0,0,0,0,0,0,0,0,70
9996,0,0,0,0.718290603852058,0,0,0,0,0,0,0,0,0,0,0,0,0,0,0,5.75048957733895,0,0,0,0,0,0,0,0,0,0.00196818380439071,0,0,0,0,2.32403624198895,0,0,0,0,0,0,0.135908173521705,0,0,0,0,0,0,0,0,71
9996,0,0,0,2.85796687141425,0,0,0,0,0,0,0,0,0,0,0,0,0,0,0,2.60214292287936,0,0,0,0,0,0,0,0,0,0.00215292152819929,0,0,0,0,0.198484146162789,0,0,0,0,0,0,3.23168203219709,0,0,0,0,0,0,0,0,72
9996,0,0,0,3.20161644723958,0,0,0,0,0,0,0,0,0,0,0,0,0,0,0,2.64183695943179,0,0,0,0,0,0,0,0,0,0.000199101169927218,0,0,0,0,0.0498935603394137,0,0,0,0,0,0,3.01884856961756,0,0,0,0,0,0,0,0,73
9996,0,0,0,1.97281360185654,0,0,0,0,0,0,0,0,0.00471827632064518,0,0,0,0,0,0,3.05333370229317,0,0,0,0,0,0,0,0,0,0,0,0,0,0,0.00246760990776703,0,0,0,0,0,0,3.90673434545912,0,0,0,0,0,0,0,0,74
9996,0,0,0,1.93068075073039,0,0,0,0,0,0,0,0,0,0,0,0,0,0,0,3.68310588532195,0,0,0,0,0,0,0,0,0,0.00195309726964648,0,0,0,0,0.0178902931827566,0,0,0,0,0,0,3.24971584481899,0,0,0,0,0,0,0,0,75
9996,0,0,0,2.59773667158791,0,0,0,0,0,0,0,0,0,0,0,0,0,0,0,2.6207140705303,0,0,0,0,0,0,0,0,0,0.000119467463604559,0,0,0,0,0.328006545010244,0,0,0,0,0,0,3.31016828028228,0,0,0,0,0,0,0,0,76
9996,0,0,0,1.91677803246682,0,0,0,0,0,0,0,0,0,0,0,0,0,0,0,3.37819480198604,0,0,0,0,0,0,0,0,0,0.00194602275110074,0,0,0,0,1.14843306440545,0,0,0,0,0,0,2.52432704174279,0,0,0,0,0,0,0,0,77
9996,0,0,0,2.54278933718654,0,0,0,0,0,0,0,0,0,0,0,0,0,0,0,3.02510056322361,0,0,0,0,0,0,0,0,0,0,0,0,0,0,0.000753814306365981,0,0,0,0,0,0,3.2405536567302,0,0,0,0,0,0,0,0,78
9996,0,0,0,1.9636244363766,0,0,0,0,0,0,0,0,0,0,0,0,0,0,0,3.3681142671601,0,0,0,0,0,0,0,0,0,0.00133838909349642,0,0,0,0,0.00236957720895199,0,0,0,0,0,0.37201722607699,3.19953233943044,0,0,0,0,0,0,0,0,79
9996,0,0,0,5.03572164102204,0,0,0,0,0,0,0,0,0,0,0,0,0,0,0,1.1105243842439,0,0,0,0,0,0,0,0.0851509958189039,0,0,0,0,0,0,0.0482022141676609,0,0,0,0,0,0,2.71597320765122,0,0,0,0,0,0,0,0,80
9996,0,0,0,3.25781000798975,0,0,0,0,0,0,0,0,0,0,0,0,0,0,0,2.61493058517484,0,0,0,0,0,0,0,0,0,0.00124551619334643,0,0,0,0,0,0,0,0,0,0,0,3.02375036989064,0,0,0,0,0,0,0,0,81
9996,0,0,0,1.99328084369023,0,0,0,0,0,0,0,0,0,0,0,0,0,0,0,3.5455882958064,0,0,0,0,0,0,0,0,0,0,0,0,0,0,0.00168401259253549,0,0,0,0,0,0,3.36626498807652,0,0,0,0,0,0,0,0,82
9996,0,0,0,1.95665044386396,0,0,0,0,0,0,0,0,0,0,0,0,0,0,0,2.55487393020857,0,0,0,0,0,0,0,0,0,0.00118451048693462,0,0,0,0,0.0501788906018053,0,0,0,0,0,0,4.41888474804837,0,0,0,0,0,0,0,0,83
9996,0,0,0,1.94513603323429,0,0,0,0,0,0,0,0,0,0,0,0,0,0,0,2.47112375797324,0,0,0,0,0,0,0,0.505284955947593,0,0.000380199202471633,0,0,0,0,0.00888589017328975,0,0,0,0,0,0,4.14525745823415,0,0,0,0,0,0,0,0,84
9996,0,0,0,2.0297545687045,0,0,0,0,0,0,0,0,0.00364193344255087,0,0,0,0,0,0,3.43417030489565,0,0,0,0,0,0,0,0,0,0,0,0,0,0,0.0010079452162113,0,0,0,0,0,0,3.38718750055701,0,0,0,0,0,0,0,0,85
9996,0,0,0,1.76891597585242,0,0,0,0,0,0,0,0,0,0,0,0,0,0,0,4.29893782553183,0,0,0,0,0,0,0,0,0,0.00170486586028521,0,0,0,0,1.46983921525514,0,0,0,0,0,0,1.4361525306786,0,0,0,0,0,0,0,0,86
9996,0,0,0,2.62426590183719,0,0,0,0,0,0,0,0,0.0352095268836467,0,0,0,0,0,0,2.80633310551761,0,0,0,0,0,0,0,0,0,0.00255783663293386,0,0,0,0,0.0273449193221292,0,0,0,0,0,0,3.41524147092934,0,0,0,0,0,0,0,0,87
9996,0,0,0,1.79311170405789,0,0,0,0,0,0,0,0,0,0,0,0,0,0,0,4.07661399121189,0,0,0,0,0,0,0,0,0,0,0,0,0,0,0.00237741654478174,0,0,0,0,0,0,3.04109785662481,0,0,0,0,0,0,0,0,88
9996,0,0,0,1.90680677413383,0,0,0,0,0,0,0,0,0,0,0,0,0,0,0,3.16005753291037,0,0,0,0,0,0,0,0,0,0,0,0,0,0,0.000357266380987269,0,0,0,0,0,0,3.99890127540169,0,0,0,0,0,0,0,0,89
9996,0,0,0,2.27668028559686,0,0,0,0,0,0,0,0,0,0,0,0,0,0,0,3.31494793808156,0,0,0,0,0,0,0,0,0,0,0,0,0,0,0.904938090741487,0,0,0,0,0,0,2.30518151672439,0,0,0,0,0,0,0,0,90
9996,0,0,0,1.92138030554613,0,0,0,0,0,0,0,0,0,0,0,0,0,0,0,2.56723246757349,0,0,0,0,0,0,0,0,0,0,0,0,0,0,0.00593754443726084,0,0,0,0,0,0,4.46255002839157,0,0,0,0,0,0,0,0,91
9996,0,0,0,1.58839883880413,0,0,0,0,0,0,0,0,0,0,0,0,0,0,0,4.4719009703291,0,0,0,0,0,0,0,0,0,0.000658881074192243,0,0,0,0,0.000337637224704008,0,0,0,0,0,0,2.98562416875601,0,0,0,0,0,0,0,0,92
9996,0,0,0,1.84429513863113,0,0,0,0,0,0,0,0,0,0,0,0,0,0,0,4.02678867126957,0,0,0,0,0,0,0,0,0,0.000113259647773228,0,0,0,0,0,0,0,0,0,0,0,3.10296895466894,0,0,0,0,0,0,0,0,93
9996,0,0,0,2.19000656489325,0,0,0,0,0,0,0,0,0,0,0,0,0,0,0,2.47926007575883,0,0,0,0,0,0,0,0,0,0.000539496421566003,0,0,0,0,0.00114026252937022,0,0,0,0,0,0,4.375797186762,0,0,0,0,0,0,0,0,94
9996,0,0,0,1.83273852086044,0,0,0,0,0,0,0,0,0,0,0,0,0,0,0,4.10287210155957,0,0,0,0,0,0,0,0,0,0,0,0,0,0,0.00156555711981243,0,0,0,0,0,0,3.03393176818536,0,0,0,0,0,0,0,0,95
9996,0,0,0,2.062969993979,0,0,0,0,0,0,0,0,0,0,0,0,0,0,0,2.55586603455632,0,0,0,0,0,0,0,0.43567321804827,0,0,0,0,0,0,0,0,0,0,0,0,0,3.92036090618219,0,0,0,0,0,0,0,0,96
9996,0,0,0,1.93522245682475,0,0,0,0,0,0,0,0,0,0,0,0,0,0,0,2.45935975671627,0,0,0,0,0,0,0,0,0,0,0,0,0,0,0.000735552064132958,0,0,0,0,0,0,4.53819074291327,0,0,0,0,0,0,0,0,97
9996,0,0,0,3.26739747149105,0,0,0,0,0,0,0,0,0,0,0,0,0,0,0,2.59299045650845,0,0,0,0,0,0,0,0,0,0,0,0,0,0,0.00465217478399844,0,0,0,0,0,0,3.0695779071347,0,0,0,0,0,0,0,0,98
9996,0,0,0,1.83774993423023,0,0,0,0,0,0,0,0,0,0,0,0,0,0,0,3.15396754912455,0,0,0,0,0,0,0,0,0,0,0,0,0,0,0.000436524917246526,0,0,0,0,0,0,4.10958330740729,0,0,0,0,0,0,0,0,99
