"Time","Bac_1","Bac_2","Bac_3","Bac_4","Bac_5","Bac_6","Bac_7","Bac_8","Bac_9","Bac_10","Bac_11","Bac_12","Bac_13","Bac_14","Bac_15","Bac_16","Bac_17","Bac_18","Bac_19","Bac_20","Bac_21","Bac_22","Bac_23","Bac_24","Bac_25","Bac_26","Bac_27","Bac_28","Bac_29","Bac_30","Bac_31","Bac_32","Bac_33","Bac_34","Bac_35","Bac_36","Bac_37","Bac_38","Bac_39","Bac_40","Bac_41","Bac_42","Bac_43","Bac_44","Bac_45","Bac_46","Bac_47","Bac_48","Bac_49","Bac_50","Iter"
5996,0,0,0,0,0,0,0,0,0.00340386060482843,0,0,0,0.00017295805872075,0,0.000198553075603296,0,0,0,0,0,0,0,5.12594662833326,0,0,0,0,0,0,0.00271559083000674,0,0,0.00934646369534966,0,0,0,0,0,0,3.0938664615114,0,0,0,0,0,0,0,0,0,0,0
5996,0,0,0,0,0,0,0,0,0.00379770143055988,0.000223412417901105,0,0,0.00017862132426875,0,0.000157301138120654,0,0,0,0,0,0,0,5.24176971845643,0,0,0,0,0,0,0.00508330371902501,0,0,0.0113361703408694,0,0,0,0,0,0,2.65304533393677,0,0,0,0,0,0,0,0,0,0,1
5996,0,0,0,0,0,0,0,0,0.0109075629317518,0.000272461541630145,0,0,0.000154787559326424,0,0.000526962734293555,0,0,0,0,0,0,0,3.56168837139814,0,0,0,0,0,0,0.0173805058746809,0,0,0.0268560913369479,0,0,0,0,0,0,4.26432649138509,0,0,0,0,0,0,0,0,0,0,2
5996,0,0,0,0,0,0,0,0,0.00386195507383333,0.000317469053083676,0,0,0,0,0.000515826874024553,0,0,0,0,0,0,0,3.28010361189186,0,0,0,0,0,0,0.0173302742647696,0,0,0.0313317384773347,0,0,0,0,0,0,4.57255532269463,0,0,0,0,0,0,0,0,0,0,3
5996,0,0,0,0,0,0,0,0,0,0,0,0,0,0,0,0.855089407289177,0,0,0,0,0,0,0,4.23886396249339,0,2.37489555408055,0,0,0,0,0,0,0,0,0,0,0,0,0,0,0,0.00324789755128549,0,0,0.000128835855979538,0,0,0,0,0,4
5996,0.000115778868946902,0,0,0.000790832766755792,0,0,0,0,0,0,0.000505705736846245,0,0,0,0,0,0,0,0.00146240582211108,0,7.20044850818195,0,0,0,0,0,0,0,0,0,0,0,0,0,0,0,0,0,0,0.570752838553184,0,0,0,0,0,0,0,0,0,0,5
5996,0,0.000303847286879855,0,0,0,0,0,0,0,0,0,0,0,0,0,0,0,0,0.00654647852355042,1.92219485472651,0,0,0,4.70452673215794,0,0,0,0,0,0,0,0,0,0,0,0,0,0,0,0,0,0,0,0,0,0,1.82770616247467,0,0,0,6
5996,0,0,0,0,0,0.0436672910695552,0,0,0,0,0,0,0,0,0.000119937221962406,0,0,0,0,0.000321219763929173,0,0,0,0.00941859602596872,0,0,0,0,0,0,0,0,0.403403134788599,0,0,0,0,0,7.18996586698488,0,0,0,0,0,0,0,0,0,0,0,7
5996,0.223464289421786,0,0,0,0,0,0,0,0,0,5.55360314017604,0,0,0,0,0.0243571463154065,0,0,0,0,0,0,0,0,0,0,0,0,0,0,0,0,0,0,0,0,0,0,0,0,0,0,0,2.75169253084547,0,0,0,0,0,0,8
5996,0,0,0,0,3.89307114373868,0,0,0,0,0,0,0,0,0,0,0,0,1.77310715506637,0,0,0.0220909553473368,0,0,0,0,0,0,0,0,0,0,0,0,0,0,0,2.37425936544348,0,0,0,0,0,0,0,0,0,0.00354779037064321,0,0,0,9
5996,0,0,0,0.00197667865979303,0,0,0,0,0,0,0,0,0,3.74727914618215,0,0,0,0,0,0.698318419773585,0,0,0,0,0,0,0,0,0,0.012781714622286,0,0,0,0,0.0030256702151894,0,0,0,0,0,0,0,0,0,0,0,0,2.92206553092458,0,0.000110678575946104,10
5996,0,2.42926092344849,0,0,0,0,0,0,0,0,0,0,0,0,0,0,0,0,0,0,0,0,0,3.75556539656532,0,0,0,0,0,0,0,0,0,0,0.000887305743689786,0,0,0.000743261268601256,0,0,0,0,0,0,0,0,1.58319019880191,0,0.0311357746160771,0,11
5996,3.00599397911973,0.00010014474179476,0,0,0,5.03980400772722,0,0.000663918880250315,0,0,0,0,0,0,0,0,0.155428086313533,0,0,0,0,0,0,0,0,0,0,0,0,0,0,0,0,0,0,0,0,0,0,0,0,0,0,0,0.0396314222578774,0,0,0,0,0,12
5996,0,0,0,0,0,0,0,0.000250832139602092,0.194801930979524,6.37084610731347,0,0,0,1.21775417999469,0,0,0,0,0,0,0,0,0,0,0,0,0.0222174292741253,0.00010153652103491,0,0,0,0,0,0,0,0,0.00136692960619443,0.000148533280275187,0,0,0,0,0,0,0.000592726119458249,0,0,0,0,0,13
5996,0,0,0,0,0,0,0,0,0.000141618921392592,0,0,0,0,0,0,0,0,0,0,0,0,0,0,0,0,0,0,0,7.56817722942738,0,0,0,0,0.00656438974928299,0,0,0,0,0,0,0,0,0,1.19034329817295,0.0105277491766303,0.191973836066005,0,0,0,0,14
5996,0,0.000106746163665782,2.29419102108979,0,0,0,0,0,0,0,0,0,0,0,0,0,0,0,0,0.254303106578652,0,0,0,0,0.00639612054633527,0,0,1.28170797742859,0,0,0,0,0,0,0,0,0,0,0,0,0,5.31483086097674,0,0,0,0.00361040432697081,0,0,0,0,15
5996,0,0,0,0,0,0,0,0,0.00247651885323599,0.000305591518447833,0,0,0.000119146109854147,0,0.00100746534372215,0,0,0,0,0,0,0,3.58534289989843,0,0,0,0,0,0,0.00813501588649861,0,0,0.00655122592741069,0,0,0,0,0,0,4.13522336520386,0,0,0,0,0,0,0,0,0,0,16
5996,0,0,0,0,0,0,0,0,0.00692591377112972,0.000189924602573123,0,0,0.00901424867819708,0,0.00118813545857429,0,0,0,0,0,0,0,3.06035424328256,0,0,0,0,0,0,0.0145782666695207,0,0,0.0882815595374941,0,0,0,0,0,0,4.68914675218157,0,0,0,0,0,0,0,0,0,0,17
5996,0,0,0,0,0,0,0,0,0.00538689850236117,0.000117665702379988,0,0,0.247285060121565,0,0.000672983262891104,0,0,0,0,0.00202735923093574,0,0,3.16508502271192,0,0,0,0,0,0,0.00428626322670328,0,0,0.0141457019336922,0,0,0,0,0,0,4.35680349829482,0,0,0,0,0,0,0,0,0,0,18
5996,0,0,0,0,0,0,0,0,0.00608358570364279,0.000740952724187207,0,0,0.000498221084312534,0,0.00124729793803068,0,0,0,0,0,0,0,3.42212511621234,0,0,0,0,0,0,0.0327128913005888,0,0,0.0817381434851258,0,0,0,0,0,0,4.16328464910611,0,0.000109943024582388,0,0,0,0,0,0,0,0,19
5996,0,0,0,0,0,0,0,0,0,0,0,0,0,0,0,0,1.29610099484283,0,0,0,0.000371053604705975,0,0,0,0,0,0,0,0,0,0,0,0,0,0,0,0,3.87469775788535,0,3.66119783191589,0,0,0,0,0.0581057330254345,0,0,0,0,0,20
5996,0,0,0,0,0,0,0,0,0.00555295969931758,0.000103686881752363,0,0,0.000108880717201646,0,0.000668110112743498,0,0,0,0,0,0,0,3.49096849514454,0,0,0,0,0,0,0.0086618732901169,0,0,0.0112523103962302,0,0,0,0,0,0,4.18171829196616,0,0,0,0,0,0,0,0,0,0,21
5996,0,0,0,0,0,0,0,0,0.0137371438525555,0.000888386767571578,0,0,0.00366631836422084,0,0.00216742771640435,0,0,0,0,0,0,0,3.75117642656954,0,0,0,0,0,0,0.00987763545879827,0,0,0.030841132390455,0,0,0,0,0,0,3.90536943145584,0,0.000144605032273226,0,0,0,0,0,0,0,0,22
5996,0,0,0,0,0,0,0,0,0,0,0,0,0.0001397015873204,0,2.87081229247032,0,0,0,0,0,0,0,0,0,0,0,0.00123741921417465,0,0,0,0,0,0,0,0,0,0,0,0,0,0,0,0.00648084392129737,4.91701021936387,0,0,0,0,0,0,23
5996,0,0,0,0,0,0,0,0,0.000835332609234348,0.00021521874515086,0,0,0.000133464938869566,0,0.000263599112287133,0,0,0,0,0,0,0,4.98843664932373,0,0,0,0,0,0,0.002995653716679,0,0,0.0237970356215538,0,0,0,0,0,0,2.86582745726818,0,0,0,0,0,0,0,0,0,0,24
5996,0,0,0,0,0,0,0,0,0.004672086136787,0.000173239627264967,0,0,0.000285726199908363,0,0.000369752373712938,0,0,0,0,0,0,0,2.73859467134079,0,0,0,0,0,0,0.00409154196848885,0,0,0.0281327622235949,0,0,0,0,0,0,5.02611943820915,0,0,0,0,0,0,0,0,0,0,25
5996,0,0,0,0,0,0,0,0,0.00103341772483074,0.000218446572397534,0,0,0.0134968917039793,0,0,0,0,0,0,0,0,0,3.6328204759073,0,0,0,0,0,0,0.00489459943914151,0,0,0.00423162954898445,0,0,0,0,0,0,4.24405870148297,0,0,0,0,0,0,0,0,0,0,26
5996,0,0,0,0,1.10390345732758,0,0,0,0,0,0,0,0,0,0,2.7230925353146,0,0,0.00022063831604217,0,0,0,0,0,0,0,0,0,0,0,0,0,0,2.69423082578417,0,0,0,0,0,0,0,0,0,0,0,0,1.79328124637016,0,0,0.000237417074208123,27
5996,0,0,0,0,0,0.000392130548187674,3.07618054790074,0,0,0,0,0,0,0,0,0,0,0,0,0.0129502260606207,0,0,0,0,0,0,0,0,0,0,0,0,0,0,0,0,0,0,0,0,0,3.81639751010977,0,0,0,0,0,1.41665541461224,0,0.731037172968386,28
5996,0,0,0,0,0,0,0,0,0.00140403612409393,0,0,0,0,0,0.000167027023481403,0,0,0,0,0,0,0,5.11353058384615,0,0,0,0,0,0,0.000466145594273423,0,0,0.015753366862068,0,0,0,0,0,0,2.90296381511524,0,0,0,0,0,0,0,0,0,0,29
5996,0,0,0,0,0,0,0,0,0.00881809326716347,0.000341036629807099,0,0,0.000132134813899471,0,0.000718156088444322,0,0,0,0,0,0,0,3.144561751208,0,0,0,0,0,0,0.00359637263878321,0,0,0.0174300941789926,0,0,0,0,0,0,4.38120322554259,0,0,0,0,0,0,0,0,0,0,30
5996,0,0,0,0,0,0,0,0,0.00114690003081314,0.000172588380174022,0,0,0.010544824288644,0,0.000456579110126135,0,0,0,0,0.000660623777192985,0,0,2.6668179992937,0,0,0,0,0,0,0.00401175947607443,0,0,0.0065710200227667,0,0,0,0,0,0,5.24254794163368,0,0,0,0,0,0,0,0,0,0,31
5996,0,0,0,0,0,0,0,0,0.01331592966364,0.000847805590274944,0,0,0,0,0.000347169523294698,0,0,0,0,0.0083095036455815,0,0,4.99025450631714,0,0.000138345333946899,0,0,0,0,0.0205729346688417,0,0,0.0828716175156895,0,0,0,0,0,0,2.76736405936643,0,0.000115979124286947,0,0,0,0,0,0,0,0,32
5996,0,0,0,0,0,0,0,0,0.00467654497413745,0.000311177950876484,0,0,0.00106474321028498,0,0.000508424513332257,0,0,0,0,0.000123160666603886,0,0,4.31733596236382,0,0,0,0,0,0,0.0141485903735351,0,0,0.00927288775930673,0,0,0,0,0,0,3.50249941980603,0,0,0,0,0,0,0,0,0,0,33
5996,0,0,0,0,0,0,0,0,0.00590294261723673,0.000124623720181151,0,0,0.00455428739193188,0,0.000566882583088495,0,0,0,0,0,0,0,4.06955354667094,0,0,0,0,0,0,0.00185710097807733,0,0,0.0227605132539096,0,0,0,0,0,0,3.64063186320034,0,0,0,0,0,0,0,0,0,0,34
5996,0,0,0,0,0,0,0,0,0.00468610028865381,0.000280146348315893,0,0,0.00133117351578951,0,0.000420011725713813,0,0,0,0,0,0,0,3.17181682680076,0,0,0,0,0,0,0.00795175907105815,0,0,0.0127310436735709,0,0,0,0,0,0,4.53441214116738,0,0,0,0,0,0,0,0,0,0,35
5996,0,0,0,0,0,0,0,0,0.00286920890215165,0,0,0,0.000457845958147906,0,0.000149620367881693,0,0,0,0,0,0,0,3.52443546698818,0,0,0,0,0,0,0.0032574926502425,0,0,0.0109431014910203,0,0,0,0,0,0,4.4160696767142,0,0,0,0,0,0,0,0,0,0,36
5996,0,0,0,0,0,0,0,0,0.00174857121676965,0,0,0,0.00228341263306231,0,0.000468101821849931,0,0,0,0,0.00212974766935848,0,0,5.30137729398166,0,0,0,0,0,0,0.00438142603703508,0,0,0.00212001176748962,0,0,0,0,0,0,2.66326844740343,0,0,0,0,0,0,0,0,0,0,37
5996,0,0,0,0,0,0,0,0,0.0215877235265731,0.000244113277132667,0,0,0.000510062227211535,0,0.000517852703241686,0,0,0,0,0.00734151046561969,0,0,4.1581105949422,0,0,0,0,0,0,0.00469234987750721,0,0,0.043115626738394,0,0,0,0,0,0,3.64756344149124,0,0,0,0,0,0,0,0,0,0,38
5996,0,0,0,0,0,0,0,0,0.0018489647138576,0.000106985582219619,0,0,0.0153640369136285,0,0.000444052371601468,0,0,0,0,0.000979002130975332,0,0,4.59408370167964,0,0,0,0,0,0,0.0064146535979794,0,0,0.0176184442358712,0,0,0,0,0,0,3.26456861884851,0,0,0,0,0,0,0,0,0,0,39
5996,0,0,0,0,0,0,0,0,0.00709905129042625,0.000179158075928118,0,0,0.000331646760994066,0,0.000410067879328677,0,0,0,0,0,0,0,5.34568636990915,0,0,0,0,0,0,0.0150296607192137,0,0,0.0686584246019189,0,0,0,0,0,0,2.5253931776218,0,0,0,0,0,0,0,0,0,0,40
5996,0,0,0,0,0,0,0,0,0.00205373427970958,0,0,0,0.000111956754942965,0,0.000216410135023198,0,0,0,0,0.00643411374542249,0,0,5.17485034533802,0,0,0,0,0,0,0.00857969391981709,0,0,0.0105524878954607,0,0,0,0,0,0,2.97494764382669,0,0,0,0,0,0,0,0,0,0,41
5996,0,0,0,0,0,0,0,0,0.0083209858090778,0.000325581968698803,0,0,0,0,0.000960342573410668,0,0,0,0,0,0,0,4.57399627854339,0,0,0,0,0,0,0.0228579280614736,0,0,0.0376519462094783,0,0,0,0,0,0,3.25260852588199,0,0,0,0,0,0,0,0,0,0,42
5996,0,0,0,0,0,0,0,0,0.00287005450323189,0.000152459040765875,0,0,0.00116367017743603,0,0.000411441643825869,0,0,0,0,0,0,0,4.64888711793225,0,0,0,0,0,0,0.00628148225123454,0,0,0.0239036964707442,0,0,0,0,0,0,3.09184937886245,0,0,0,0,0,0,0,0,0,0,43
5996,0,0,0,0,0,0,0,0,0.00281197579622604,0.000113549498536131,0,0,0,0,0.000217258952186619,0,0,0,0,0.00179944465976683,0,0,5.33270992589911,0,0,0,0,0,0,0.00133807738002281,0,0,0.0360950619828457,0,0,0,0,0,0,2.68852350621607,0,0,0,0,0,0,0,0,0,0,44
5996,0,0,0,0,0,0,0,0,0.00937725771177994,0.000163908732695389,0,0,0.00257972694091043,0,0.000398878597336171,0,0,0,0,0,0,0,3.24560822046382,0,0,0,0,0,0,0.00844153009584857,0,0,0.0172981800451411,0,0,0,0,0,0,4.41058416304417,0,0,0,0,0,0,0,0,0,0,45
5996,0,0,0,0,0,0,0,0,0.00161001543113869,0.000101215013218007,0,0,0,0,0,0,0,0,0,0.0004385991106075,0,0,4.84811157033331,0,0,0,0,0,0,0.00500949215537483,0,0,0.0041448985798058,0,0,0,0,0,0,2.9879940966185,0,0,0,0,0,0,0,0,0,0,46
5996,0,0,0,0,0,0,0,0,0.0047404479236437,0.000259829096596716,0,0,0.000146042239272228,0,0.000242681151008808,0,0,0,0,0.00049091293880503,0,0,4.80687583177565,0,0,0,0,0,0,0.0116068559475334,0,0,0.0314040830991076,0,0,0,0,0,0,2.88098067247262,0,0,0,0,0,0,0,0,0,0,47
5996,0,0,0,0,0,0,0,0,0.00504920489665352,0.000255796081584144,0,0,0.000418937524925643,0,0.000276527540712624,0,0,0,0,0,0,0,4.76434802260987,0,0,0,0,0,0,0.00169759313269486,0,0,0.00948856986228346,0,0,0,0,0,0,3.15337107209848,0,0,0,0,0,0,0,0,0,0,48
5996,0,0,0,0,0,0,0,0,0.00150788460406983,0,0,0,0.240189496431694,0,0.000366370654624416,0,0,0,0,0,0,0,3.46047362910392,0,0,0,0,0,0,0.00414305192610092,0,0,0.0266177185125701,0,0,0,0,0,0,4.11488995321942,0,0,0,0,0,0,0,0,0,0,49
5996,0,0,0,0,0,0,0,0,0.00407416877890499,0.000186238454410064,0,0,0,0,0.000454097274744049,0,0,0,0,0.000148806699617984,0,0,3.91354363456291,0,0,0,0,0,0,0.00502962781536149,0,0,0.0178262250897406,0,0,0,0,0,0,3.79130336372885,0,0,0,0,0,0,0,0,0,0,50
5996,0,0,0,0,0,0,0,0,0.00278647018513671,0.000172545381059685,0,0,0.000140263055247367,0,0.00020474397363597,0,0,0,0,0.000401397818452513,0,0,5.28262252381437,0,0,0,0,0,0,0.00354793553368444,0,0,0.0117425591441396,0,0,0,0,0,0,2.68776722336971,0,0,0,0,0,0,0,0,0,0,51
5996,0,0,0,0,0,0,0,0,0.00183421118145193,0,0,0,0.00291595257670481,0,0.000283094603493721,0,0,0,0,0,0,0,4.9311491667151,0,0,0,0,0,0,0.00516281275598226,0,0,0.019207002331025,0,0,0,0,0,0,2.98943537140311,0,0,0,0,0,0,0,0,0,0,52
5996,0,0,0,0,0,0,0,0,0.00309622353030503,0.000697095284606569,0,0,0.000139862270453453,0,0.000356138763627288,0,0,0,0,0.00317507412735471,0,0,4.76505168287507,0,0,0,0,0,0,0.0113942396576801,0,0,0.0216944447622679,0,0,0,0,0,0,3.08270863210536,0,0,0,0,0,0,0,0,0,0,53
5996,0,0,0,0,0,0,0,0,0.00230601535953744,0.000273127204125374,0,0,0.00177491833420374,0,0.00016352512251705,0,0,0,0,0,0,0,2.95199433703052,0,0,0,0,0,0,0.00808757706137038,0,0,0.0144651029200235,0,0,0,0,0,0,4.8411073975934,0,0,0,0,0,0,0,0,0,0,54
5996,0,0,0,0,0,0,0,0,0.017531589060312,0.000556988179722944,0,0,0.000367055445637977,0,0.00787815167699241,0,0,0,0,0,0,0,3.23048757258639,0,0,0,0,0,0,0.0305305565300141,0,0,0.139968596630734,0,0,0,0,0,0,4.26840408703832,0,0.000167272083787621,0,0,0,0,0,0,0,0,55
5996,0,0,0,0,0,0,0,0,0.00991399616940344,0.000263955330595194,0,0,0.00013176963367076,0,0.000767393289844589,0,0,0,0,0,0,0,5.13213706032153,0,0,0,0,0,0,0.128434977764601,0,0,0.0440356921180353,0,0,0,0,0,0,2.63194309313479,0,0,0,0,0,0,0,0,0,0,56
5996,0,0,0,0,0,0,0,0,0.0153846802560761,0.00101338607977352,0,0,0.000214087441367052,0,0.00071549568094171,0,0,0,0,0.001863651385035,0,0,4.81328626257344,0,0,0,0,0,0,0.0154693608204536,0,0,0.0886757334233928,0,0,0,0,0,0,2.90946557728522,0,0.000113584399709367,0,0,0,0,0,0,0,0,57
5996,0,0,0,0,0,0,0,0,0.00736170022658657,0.000755827705099996,0,0,0,0,0.000456623810214385,0,0,0,0,0.000357146073867096,0,0,4.93750132957895,0,0,0,0,0,0,0.0095495485103718,0,0,0.0506662900217824,0,0,0,0,0,0,2.84839957490421,0,0,0,0,0,0,0,0,0,0,58
5996,0,0,0,0,0,0,0,0,0.0012409532329123,0.000219774122550299,0,0,0,0,0.000305434870013691,0,0,0,0,0,0,0,3.35170772358125,0,0,0,0,0,0,0.00640831804895836,0,0,0.0172335902991099,0,0,0,0,0,0,4.64051377173356,0,0,0,0,0,0,0,0,0,0,59
5996,0,0,0,0,0,0,0,0,0.0275997829613316,0.000390634794518444,0,0,0,0,0.000999874694693138,0,0,0,0,0,0,0,3.42089590964857,0,0,0,0,0,0,0.0299348290241555,0,0,0.0320955604394302,0,0,0,0,0,0,4.00449158149068,0,0,0,0,0,0,0,0,0,0,60
5996,0,0,0,0,0,0,0,0,0.00225134246565343,0,0,0,0.00394334752891833,0,0.000602915716994093,0,0,0,0,0,0,0,4.64389398057127,0,0,0,0,0,0,0.00507204786228306,0,0,0.00578333427646548,0,0,0,0,0,0,3.37548830939818,0,0,0,0,0,0,0,0,0,0,61
5996,0,0,0,0,0,0,0,0,0.00338605248062948,0.000196082696767144,0,0,0.0193668976333086,0,0.000176299059262301,0,0,0,0,0.00104152566188353,0,0,4.61837060007153,0,0,0,0,0,0,0.00319551806048825,0,0,0.0129637381595747,0,0,0,0,0,0,3.21267095678423,0,0,0,0,0,0,0,0,0,0,62
5996,0,0,0,0,0,0,0,0,0.00213764597302374,0.000163050618515908,0,0,0.0653896925460545,0,0.000154652084882396,0,0,0,0,0.000636626089444701,0,0,2.17175482588477,0,0,0,0,0,0,0.00227395844850391,0,0,0.0152348956644112,0,0,0,0,0,0,5.73907401746523,0,0,0,0,0,0,0,0,0,0,63
5996,0,0,0,0,0,0,0,0,0.002112601617806,0,0,0,0.0013218228950945,0,0,0,0,0,0,0.00124877994177573,0,0,4.68661981460346,0,0,0,0,0,0,0.00124397110426493,0,0,0.0141883348480893,0,0,0,0,0,0,3.39268894255401,0,0,0,0,0,0,0,0,0,0,64
5996,0,0,0,0,0,0,0,0,0.000395145894321971,0,0,0,0.0120383624443612,0,0,0,0,0,0,0,0,0,5.35890934155343,0,0,0,0,0,0,0.00105758779716607,0,0,0.00130701550428811,0,0,0,0,0,0,2.78341116768204,0,0,0,0,0,0,0,0,0,0,65
5996,0,0,0,0,0,0,0,0,0.00235403467826476,0,0,0,0.040736879955161,0,0.000566409185492558,0,0,0,0,0.000663518031987632,0,0,4.94502029361693,0,0,0,0,0,0,0.00088504166958767,0,0,0.0251707312356992,0,0,0,0,0,0,3.07216435876233,0,0,0,0,0,0,0,0,0,0,66
5996,0,0,0,0,0,0,0,0,0.00316122638735235,0,0,0,0.000284894547334583,0,0.000142204069481834,0,0,0,0,0,0,0,5.33378485144739,0,0,0,0,0,0,0.00350016006027476,0,0,0.00668839964621864,0,0,0,0,0,0,2.86289148783906,0,0,0,0,0,0,0,0,0,0,67
5996,0,0,0,0,0,0,0,0,0.00201657687773555,0.00026730631213385,0,0,0,0,0.000227747904834857,0,0,0,0,0,0,0,2.81688440493862,0,0,0,0,0,0,0.00295045966381506,0,0,0.0219909601321116,0,0,0,0,0,0,5.05183983506603,0,0,0,0,0,0,0,0,0,0,68
5996,0,0,0,0,0,0,0,0,0.00682235453597681,0.00012842674685832,0,0,0.000169042291770094,0,0.000221087878702998,0,0,0,0,0,0,0,4.84637383659406,0,0,0,0,0,0,0.00350842276474157,0,0,0.020393892213377,0,0,0,0,0,0,2.85042488753644,0,0,0,0,0,0,0,0,0,0,69
5996,0,0,0,0,0,0,0,0,0.00492160782393418,0.000287752235118358,0,0,0,0,0.000127885858199515,0,0,0,0,0,0,0,2.85208867663099,0,0,0,0,0,0,0.00819428520233451,0,0,0.0117922211997302,0,0,0,0,0,0,5.07551422373955,0,0,0,0,0,0,0,0,0,0,70
5996,0,0,0,0,0,0,0,0,0.0047083604770185,0.000359774253187643,0,0,0.000493758997507158,0,0.000745808235424699,0,0,0,0,0,0,0,3.14578455246299,0,0,0,0,0,0,0.00430116820660073,0,0,0.0668337723333378,0,0,0,0,0,0,4.69609037582318,0,0,0,0,0,0,0,0,0,0,71
5996,0,0,0,0,0,0,0,0,0.00626677294218026,0.000179217431286576,0,0,0.160834588740018,0,0.000335049523398148,0,0,0,0,0,0,0,2.45411058543623,0,0,0,0,0,0,0.00351949949275857,0,0,0.0218995812040397,0,0,0,0,0,0,5.14808534469617,0,0,0,0,0,0,0,0,0,0,72
5996,0,0,0,0,0,0,0,0,0.00371836827617049,0.000209729261608146,0,0,0.0251277695576401,0,0.000280342777903896,0,0,0,0,0,0,0,4.93610160019663,0,0,0,0,0,0,0.00804536126663673,0,0,0.0263715746648875,0,0,0,0,0,0,2.95832438154884,0,0,0,0,0,0,0,0,0,0,73
5996,0,0,0,0,0,0,0,0,0.00488880295711575,0.000157497364451521,0,0,0.000344677242839799,0,0.00019586346133785,0,0,0,0,0.00233170684319036,0,0,2.8095543490067,0,0,0,0,0,0,0.00267361638469368,0,0,0.00599880409283657,0,0,0,0,0,0,5.03179672420231,0,0,0,0,0,0,0,0,0,0,74
5996,0,0,0,0,0,0,0,0,0.00877684396520355,0.000543984711495687,0,0,0,0,0.00059987673442779,0,0,0,0,0,0,0,4.9006693551387,0,0,0,0,0,0,0.012077952066915,0,0,0.0144792863291219,0,0,0,0,0,0,3.0032091356458,0,0,0,0,0,0,0,0,0,0,75
5996,0,0,0,0,0,0,0,0,0.00426212643611516,0.000670844065595734,0,0,0.000862419488280744,0,0.000804989698212774,0,0,0,0,0,0,0,4.32725629981198,0,0,0,0,0,0,0.00751605775140283,0,0,0.0215610261473125,0,0,0,0,0,0,3.5069482836489,0,0,0,0,0,0,0,0,0,0,76
5996,0,0,0,0,0,0,0,0,0.00675428498608008,0,0,0,0.000100401589129591,0,0.000141230306846717,0,0,0,0,0,0,0,4.42716420391536,0,0,0,0,0,0,0.0160333891846701,0,0,0.0380105822959161,0,0,0,0,0,0,3.4445858818367,0,0,0,0,0,0,0,0,0,0,77
5996,0,0,0,0,0,0,0,0,0.00476524956703495,0,0,0,0.00643430459794805,0,0.000197331385285087,0,0,0,0,0.000696904367986105,0,0,5.1499764694895,0,0,0,0,0,0,0.00235699858123841,0,0,0.00617498481362355,0,0,0,0,0,0,2.88455190626763,0,0,0,0,0,0,0,0,0,0,78
5996,0,0,0,0,0,0,0,0,0.00359465276533176,0.000664355684252112,0,0,0.0077539323435318,0,0.00037204181001868,0,0,0,0,0,0,0,3.35995988415728,0,0,0,0,0,0,0.00612275061760733,0,0,0.0484103595851185,0,0,0,0,0,0,4.29275954687732,0,0,0,0,0,0,0,0,0,0,79
5996,0,0,0,0,0,0,0,0,0.00168375948990925,0.00012492386250744,0,0,0.00150172182337285,0,0.000183957984484783,0,0,0,0,0,0,0,5.02952835293089,0,0,0,0,0,0,0.00133360210723983,0,0,0.0144640621665572,0,0,0,0,0,0,2.84696751907867,0,0,0,0,0,0,0,0,0,0,80
5996,0,0,0,0,0,0,0,0,0.00221988773970765,0.000132225478234966,0,0,0,0,0.000349554561532869,0,0,0,0,0,0,0,5.22628833977535,0,0,0,0,0,0,0.00509574872031364,0,0,0.00841754793612488,0,0,0,0,0,0,2.78837629851701,0,0,0,0,0,0,0,0,0,0,81
5996,0,0,0,0,0,0,0,0,0.00660217318954562,0,0,0,0.00019827353266859,0,0.000544424828917558,0,0,0,0,0.00145579185029686,0,0,5.22490889428474,0,0,0,0,0,0,0.00184396547062479,0,0,0.00414289356985625,0,0,0,0,0,0,2.61262112832322,0,0,0,0,0,0,0,0,0,0,82
5996,0,0,0,0,0,0,0,0,0.0100712580858933,0.000687134437370268,0,0,0.000206474066330307,0,0.00118437312296243,0,0,0,0,0,0,0,4.61285145725645,0,0,0,0,0,0,0.0184711410597502,0,0,0.0612412267504519,0,0,0,0,0,0,3.20220609532007,0,0,0,0,0,0,0,0,0,0,83
5996,0,0,0,0,0,0,0,0,0.00420404578158177,0.000543032563581111,0,0,0.00718076003804307,0,0.00167947223210456,0,0,0,0,0,0,0,4.98350687091645,0,0,0,0,0,0,0.0118468101733103,0,0,0.0112754630692044,0,0,0,0,0,0,2.93269142157376,0,0,0,0,0,0,0,0,0,0,84
5996,0,0,0,0,0,0,0,0,0.00203890480822362,0,0,0,0.000196376876705692,0,0.000162406596446262,0,0,0,0,0,0,0,5.2680886032487,0,0,0,0,0,0,0.00652659410830237,0,0,0.00941222274336984,0,0,0,0,0,0,2.71795945209642,0,0,0,0,0,0,0,0,0,0,85
5996,0,0,0,0,0,0,0,0,0.00435162716082461,0.000229239370704088,0,0,0.000337662520081285,0,0.000264121645628114,0,0,0,0,0.000513454069656161,0,0,4.69924905127158,0,0,0,0,0,0,0.00210905287702711,0,0,0.0336432076108177,0,0,0,0,0,0,3.10287211049849,0,0,0,0,0,0,0,0,0,0,86
5996,0,0,0,0,0,0,0,0,0.0135360292138764,0.00148392895327757,0,0,0.000189725012659495,0,0.000530910410557582,0,0,0,0,0,0,0,5.06820270979468,0,0,0,0,0,0,0.0108797894887819,0,0,0.0366824326477042,0,0,0,0,0,0,2.63106299195548,0,0.000142460940102077,0,0,0,0,0,0,0,0,87
5996,0,0,0,0,0,0,0,0,0.0268015644489573,0.00106706433043009,0,0,0,0,0.000394751062904649,0,0,0,0,0.0104418276524511,0,0,4.08753150723315,0,0,0,0,0,0,0.0224567548957376,0,0,0.129145878557843,0,0,0,0,0,0,3.40828778041121,0,0.000108726298746763,0,0,0,0,0,0,0,0,88
5996,0,0,0,0,0,0,0,0,0.00208878209686824,0.000129065560013582,0,0,0.000145831003998087,0,0.000504042877664667,0,0,0,0,0.00187215879231075,0,0,5.50065902692409,0,0,0,0,0,0,0.0021813310587542,0,0,0.0165576481616601,0,0,0,0,0,0,2.59910396644174,0,0,0,0,0,0,0,0,0,0,89
5996,0,0,0,0,0,0,0,0,0.000966047373264243,0.00021035766141117,0,0,0.00382420250865786,0,0.000233545081456382,0,0,0,0,0,0,0,2.32010267122792,0,0,0,0,0,0,0.00197615483085529,0,0,0.00494386850059423,0,0,0,0,0,0,5.54961445463589,0,0,0,0,0,0,0,0,0,0,90
5996,0,0,0,0,0,0,0,0,0.0124188947805888,0.00142598134007827,0,0,0.000138824814566333,0,0.000752317095514371,0,0,0,0,0,0,0,4.96732456541987,0,0,0,0,0,0,0.104902489761122,0,0,0.0571305272525251,0,0,0,0,0,0,2.793501242441,0,0.000139783105844825,0.000103046995025996,0,0,0,0,0,0,0,91
5996,0,0,0,0,0,0,0,0,0.00284547479322182,0.000153096495540701,0,0,0.000805200560751921,0,0.000224439880050665,0,0,0,0,0.00655215658656374,0,0,4.80506421356957,0,0,0,0,0,0,0.00128132709910302,0,0,0.0240016639114645,0,0,0,0,0,0,3.01627481002669,0,0,0,0,0,0,0,0,0,0,92
5996,0,0,0,0,0,0,0,0,0.00262142882263436,0.000242964157460958,0,0,0.000217468827385041,0,0.000407081879125927,0,0,0,0,0,0,0,5.11770662492947,0,0,0,0,0,0,0.00429562878264997,0,0,0.0200202309669582,0,0,0,0,0,0,2.79396719496431,0,0,0,0,0,0,0,0,0,0,93
5996,0,0,0,0,0,0,0,0,0.0049562977103858,0.000182560297697541,0,0,0,0,0.000407707914545154,0,0,0,0,0,0,0,2.75921568662182,0,0,0,0,0,0,0.0174849463763729,0,0,0.0238050352156028,0,0,0,0,0,0,5.04226145689734,0,0,0,0,0,0,0,0,0,0,94
5996,0,0,0,0,0,0,0,0,0.00195819889735692,0,0,0,0.000446959082821766,0,0.000601759245532334,0,0,0,0,0,0,0,5.10204010213107,0,0,0,0,0,0,0.00103868543306435,0,0,0.00844983606550936,0,0,0,0,0,0,2.8807452933061,0,0,0,0,0,0,0,0,0,0,95
5996,0,0,0,0,0,0,0,0,0.00475594482274384,0.00011389370361521,0,0,0.000738992722671187,0,0.000371202505998904,0,0,0,0,0,0,0,3.27419074376837,0,0,0,0,0,0,0.00902605295438409,0,0,0.053598140564522,0,0,0,0,0,0,4.72174872902893,0,0,0,0,0,0,0,0,0,0,96
5996,0,0,0,0,0,0,0,0,0.0120250170180619,0.00025829307299715,0,0,0.000175849639971557,0,0.00113672251709524,0,0,0,0,0,0,0,4.02897353772781,0,0,0,0,0,0,0.00370061718880788,0,0,0.0540450960986116,0,0,0,0,0,0,3.69611527115679,0,0,0,0,0,0,0,0,0,0,97
5996,0,0,0,0,0,0,0,0,0.015143910833293,0.000277527805948918,0,0,0.000386765468542203,0,0.000904798854735135,0,0,0,0,0,0,0,3.7058752480362,0,0,0,0,0,0,0.0192577495500756,0,0,0.0379815721188534,0,0,0,0,0,0,3.96763700145955,0,0,0,0,0,0,0,0,0,0,98
5996,0,0,0,0,0,0,0,0,0.00404490069860299,0.000152943824158143,0,0,0.000313356365649089,0,0.000177824988084581,0,0,0,0,0.00349059169187494,0,0,4.31336168951287,0,0,0,0,0,0,0.00496303361964442,0,0,0.0252654322645778,0,0,0,0,0,0,3.48996784965638,0,0,0,0,0,0,0,0,0,0,99
