"Iter","Highest Bac Num","Highest Bac Conc","Highest Bac Anti"
0,5,6.74700037125952,0.0939266707016677
1,4,6.1847394304237,0.243156783551074
2,3,6.78507002685657,0.114067268265099
3,4,7.31643037074446,0.115121981156257
4,5,7.20370269984576,0.122577549509403
5,5,7.61708029906923,0.193358416597129
6,5,8.0391659199503,0.122141977171896
7,5,2.42037002432833,0.425216428284067
8,1,5.4631040601897,0.176218908736003
9,5,7.0494116713007,0.154951691245238
10,3,6.48389261993734,0.153685688077813
11,5,7.78097488865524,0.252517386803225
12,1,7.93208959153262,0.159117402253845
13,5,5.63788369339555,0.305780216529285
14,5,8.08219402672155,0.126764824513131
15,5,7.39891264210816,0.13247186485738
16,1,4.04915712676415,0.266112816026464
17,5,7.89036006810857,0.218902891709875
18,2,5.70582853925827,0.187138321548423
19,2,5.36629319891026,0.212136348226201
20,2,5.06371738481113,0.180472339151281
21,5,7.97441682530837,0.266000405604621
22,1,5.83342544443794,0.168816523861826
23,2,8.25810302850103,0.115172101236646
24,2,8.12512085024941,0.294017501921555
25,5,7.83018423890676,0.0518563446199806
26,2,7.98913813643253,0.108294147798758
27,1,9.42462860585205,0.205247681100927
28,5,6.86737431166112,0.195822400092145
29,5,7.28131872719803,0.176346258864906
30,5,7.00154290479316,0.152523017035937
31,5,7.02573879175936,0.162298247407743
32,5,7.84869054406198,0.133206484894233
33,5,7.03382209175632,0.219054936751583
34,5,7.12874338256312,0.181056126076086
35,5,7.88836132697135,0.137613294108928
36,5,7.52295799312376,0.24361671897155
37,5,7.46456321970824,0.176908853224304
38,5,7.88684652627431,0.0939266707016677
39,5,7.27568096743122,0.229529226882443
40,5,7.83651392112096,0.105067844466614
41,5,7.85765820835442,0.0768633308849639
42,5,7.834120448681,0.07009847798784
43,5,7.69420492879645,0.259734041415166
44,5,7.00799931596127,0.0787977627134163
45,5,7.17465544687032,0.275010599380969
46,5,7.12478567033687,0.22641201898697
47,5,6.80831458865947,0.105546786378511
48,5,7.02763617867858,0.190912198456204
49,5,7.77310876785003,0.0806893240930088
50,5,7.9634992539774,0.0817578990259503
51,5,7.05086615521351,0.246074606860883
52,5,7.00226321118256,0.221729203575818
53,5,7.73857646814427,0.0518563446199806
54,5,7.92386369150122,0.118853669963133
55,5,7.76542517412496,0.20580381034012
56,5,7.2535834214108,0.208426384089474
57,5,7.60013978435122,0.164645794182847
58,5,7.72305177805055,0.07009847798784
59,5,8.01598761756644,0.07009847798784
60,5,7.77467990291038,0.243369521241319
61,5,7.42074067446027,0.15852660154486
62,5,8.08191013199536,0.104897370888424
63,5,7.67688362870925,0.268990057189375
64,5,7.77135469391546,0.121823824063748
65,5,7.10273138063409,0.278389535797382
66,5,7.62494763000362,0.173811591057732
67,5,8.11836394911133,0.0939266707016677
68,5,7.79256357985969,0.19445328072597
69,5,6.96669996706501,0.07009847798784
70,5,7.42629171307031,0.139969069015579
71,5,7.21501377241295,0.11332544607588
72,5,7.80883432248826,0.253324384732833
73,5,7.38665298441102,0.0725993340363192
74,5,7.7146960787899,0.0518563446199806
75,5,7.59127866985839,0.07009847798784
76,5,7.47926771589545,0.154055208833254
77,5,7.33401346872749,0.229089088966586
78,5,7.0642503285488,0.214873091191087
79,5,7.66332696189875,0.156972996834984
80,5,7.69159582501411,0.133622808680031
81,5,7.14339219958015,0.231362764622419
82,5,6.88285601108738,0.136661206967706
83,5,7.25539500238703,0.238004190049792
84,5,7.35404727537727,0.295645587295182
85,5,6.896889131186,0.229422131386818
86,5,6.95082869296293,0.256495886124294
87,5,7.62235978007197,0.204384562687903
88,5,7.87708330934717,0.0939266707016677
89,5,6.89243680530377,0.104897370888424
90,5,7.17583049367531,0.144397808159027
91,5,7.86370247914699,0.0779449852211774
92,5,7.33894523830288,0.269404400949965
93,5,6.87797103147105,0.332606901142024
94,5,8.05100461697129,0.160917082758482
95,5,6.73302866857161,0.0518563446199806
96,5,7.70664516670781,0.115866468835982
97,5,7.43973238861825,0.116746562357716
98,5,7.94175265906633,0.0736178421877405
99,5,7.67587201726963,0.191076430509096
